<?xml version="1.0" encoding="UTF-8"?>
<glyph name="Aogonek.smcp" format="1">
  <advance width="1325"/>
  <outline>
    <component base=".ttfautohint" xOffset="59"/>
    <component base="A.smcp"/>
    <component base="ogonek" xOffset="987"/>
  </outline>
</glyph>
