<?xml version="1.0" encoding="UTF-8"?>
<glyph name="Eth" format="1">
  <advance width="1416"/>
  <unicode hex="00D0"/>
  <outline>
    <contour>
      <point x="667" y="1456" type="line" smooth="yes"/>
      <point x="1001.6666666666665" y="1456.0"/>
      <point x="1268.0" y="1189.0"/>
      <point x="1268" y="817" type="curve" smooth="yes"/>
      <point x="1268" y="639" type="line" smooth="yes"/>
      <point x="1268.0" y="265.6666666666668"/>
      <point x="1001.6666666666665" y="0.0"/>
      <point x="667" y="0" type="curve" smooth="yes"/>
      <point x="101" y="0" type="line"/>
      <point x="101" y="54" type="line"/>
      <point x="264" y="54" type="line"/>
      <point x="264" y="713" type="line"/>
      <point x="136" y="713" type="line"/>
      <point x="136" y="767" type="line"/>
      <point x="264" y="767" type="line"/>
      <point x="264" y="1402" type="line"/>
      <point x="101" y="1402" type="line"/>
      <point x="101" y="1456" type="line"/>
    </contour>
    <contour>
      <point x="723" y="713" type="line"/>
      <point x="318" y="713" type="line"/>
      <point x="318" y="54" type="line"/>
      <point x="667" y="54" type="line" smooth="yes"/>
      <point x="969.6666666666665" y="54.0"/>
      <point x="1214.0" y="301.6666666666668"/>
      <point x="1214" y="639" type="curve" smooth="yes"/>
      <point x="1214" y="820" type="line" smooth="yes"/>
      <point x="1214.0" y="1153.3333333333333"/>
      <point x="969.6666666666665" y="1402.0"/>
      <point x="667" y="1402" type="curve" smooth="yes"/>
      <point x="318" y="1402" type="line"/>
      <point x="318" y="767" type="line"/>
      <point x="723" y="767" type="line"/>
    </contour>
  </outline>
</glyph>
