<?xml version="1.0" encoding="UTF-8"?>
<glyph name="omega" format="1">
  <advance width="1655"/>
  <unicode hex="03C9"/>
  <outline>
    <contour>
      <point x="321" y="1082" type="line"/>
      <point x="226.33333333333337" y="902.0"/>
      <point x="169.0" y="712.0"/>
      <point x="169" y="500" type="curve" smooth="yes"/>
      <point x="169.0" y="239.99999999999994"/>
      <point x="276.33333333333337" y="33.0"/>
      <point x="483" y="33" type="curve" smooth="yes"/>
      <point x="665.6666666666667" y="33.0"/>
      <point x="783.0" y="175.66666666666674"/>
      <point x="783" y="485" type="curve" smooth="yes"/>
      <point x="783" y="770" type="line"/>
      <point x="838" y="770" type="line"/>
      <point x="838" y="485" type="line" smooth="yes"/>
      <point x="838.0" y="175.66666666666674"/>
      <point x="954.0" y="33.0"/>
      <point x="1138" y="33" type="curve" smooth="yes"/>
      <point x="1343.3333333333335" y="33.0"/>
      <point x="1452.0" y="239.99999999999994"/>
      <point x="1452" y="500" type="curve" smooth="yes"/>
      <point x="1452.0" y="710.6666666666667"/>
      <point x="1393.3333333333335" y="900.6666666666667"/>
      <point x="1300" y="1082" type="curve"/>
      <point x="1366" y="1082" type="line"/>
      <point x="1456.6666666666665" y="882.0"/>
      <point x="1505.0" y="749.6666666666667"/>
      <point x="1505" y="503" type="curve" smooth="yes"/>
      <point x="1505.0" y="191.0"/>
      <point x="1368.3333333333335" y="-21.0"/>
      <point x="1139" y="-21" type="curve" smooth="yes"/>
      <point x="976.3333333333335" y="-21.0"/>
      <point x="859.3333333333333" y="65.66666666666669"/>
      <point x="810" y="251" type="curve"/>
      <point x="759.3333333333333" y="65.66666666666669"/>
      <point x="642.3333333333333" y="-21.0"/>
      <point x="481" y="-21" type="curve" smooth="yes"/>
      <point x="250.33333333333337" y="-21.0"/>
      <point x="116.0" y="191.0"/>
      <point x="116" y="503" type="curve" smooth="yes"/>
      <point x="116.0" y="751.0"/>
      <point x="164.33333333333337" y="886.0"/>
      <point x="255" y="1082" type="curve"/>
    </contour>
  </outline>
</glyph>
