<?xml version="1.0" encoding="UTF-8"?>
<glyph name="scircumflex" format="1">
  <advance width="1009"/>
  <unicode hex="015D"/>
  <outline>
    <component base=".ttfautohint" xOffset="103"/>
    <component base="s"/>
    <component base="circumflex" xOffset="156" yOffset="27"/>
  </outline>
</glyph>
