<?xml version="1.0" encoding="UTF-8"?>
<glyph name="X" format="1">
  <advance width="1384"/>
  <unicode hex="0058"/>
  <outline>
    <contour>
      <point x="57" y="54" type="line"/>
      <point x="172" y="54" type="line"/>
      <point x="658" y="743" type="line"/>
      <point x="192" y="1402" type="line"/>
      <point x="77" y="1402" type="line"/>
      <point x="77" y="1456" type="line"/>
      <point x="425" y="1456" type="line"/>
      <point x="425" y="1402" type="line"/>
      <point x="259" y="1402" type="line"/>
      <point x="691" y="785" type="line"/>
      <point x="1124" y="1402" type="line"/>
      <point x="959" y="1402" type="line"/>
      <point x="959" y="1456" type="line"/>
      <point x="1306" y="1456" type="line"/>
      <point x="1306" y="1402" type="line"/>
      <point x="1191" y="1402" type="line"/>
      <point x="726" y="743" type="line"/>
      <point x="1212" y="54" type="line"/>
      <point x="1327" y="54" type="line"/>
      <point x="1327" y="0" type="line"/>
      <point x="980" y="0" type="line"/>
      <point x="980" y="54" type="line"/>
      <point x="1145" y="54" type="line"/>
      <point x="691" y="701" type="line"/>
      <point x="238" y="54" type="line"/>
      <point x="403" y="54" type="line"/>
      <point x="403" y="0" type="line"/>
      <point x="57" y="0" type="line"/>
    </contour>
  </outline>
  <lib>
    <dict>
      <key>com.typemytype.robofont.layerData</key>
      <dict>
        <key>mask</key>
        <dict>
          <key>anchors</key>
          <array>
          </array>
          <key>components</key>
          <array>
          </array>
          <key>contours</key>
          <array>
            <dict>
              <key>points</key>
              <array>
                <dict>
                  <key>segmentType</key>
                  <string>line</string>
                  <key>smooth</key>
                  <false/>
                  <key>x</key>
                  <integer>57</integer>
                  <key>y</key>
                  <integer>54</integer>
                </dict>
                <dict>
                  <key>segmentType</key>
                  <string>line</string>
                  <key>smooth</key>
                  <false/>
                  <key>x</key>
                  <integer>172</integer>
                  <key>y</key>
                  <integer>54</integer>
                </dict>
                <dict>
                  <key>segmentType</key>
                  <string>line</string>
                  <key>smooth</key>
                  <false/>
                  <key>x</key>
                  <integer>658</integer>
                  <key>y</key>
                  <integer>743</integer>
                </dict>
                <dict>
                  <key>segmentType</key>
                  <string>line</string>
                  <key>smooth</key>
                  <false/>
                  <key>x</key>
                  <integer>192</integer>
                  <key>y</key>
                  <integer>1402</integer>
                </dict>
                <dict>
                  <key>segmentType</key>
                  <string>line</string>
                  <key>smooth</key>
                  <false/>
                  <key>x</key>
                  <integer>77</integer>
                  <key>y</key>
                  <integer>1402</integer>
                </dict>
                <dict>
                  <key>segmentType</key>
                  <string>line</string>
                  <key>smooth</key>
                  <false/>
                  <key>x</key>
                  <integer>77</integer>
                  <key>y</key>
                  <integer>1456</integer>
                </dict>
                <dict>
                  <key>segmentType</key>
                  <string>line</string>
                  <key>smooth</key>
                  <false/>
                  <key>x</key>
                  <integer>415</integer>
                  <key>y</key>
                  <integer>1456</integer>
                </dict>
                <dict>
                  <key>segmentType</key>
                  <string>line</string>
                  <key>smooth</key>
                  <false/>
                  <key>x</key>
                  <integer>415</integer>
                  <key>y</key>
                  <integer>1402</integer>
                </dict>
                <dict>
                  <key>segmentType</key>
                  <string>line</string>
                  <key>smooth</key>
                  <false/>
                  <key>x</key>
                  <integer>259</integer>
                  <key>y</key>
                  <integer>1402</integer>
                </dict>
                <dict>
                  <key>segmentType</key>
                  <string>line</string>
                  <key>smooth</key>
                  <false/>
                  <key>x</key>
                  <integer>691</integer>
                  <key>y</key>
                  <integer>785</integer>
                </dict>
                <dict>
                  <key>segmentType</key>
                  <string>line</string>
                  <key>smooth</key>
                  <false/>
                  <key>x</key>
                  <integer>1124</integer>
                  <key>y</key>
                  <integer>1402</integer>
                </dict>
                <dict>
                  <key>segmentType</key>
                  <string>line</string>
                  <key>smooth</key>
                  <false/>
                  <key>x</key>
                  <integer>969</integer>
                  <key>y</key>
                  <integer>1402</integer>
                </dict>
                <dict>
                  <key>segmentType</key>
                  <string>line</string>
                  <key>smooth</key>
                  <false/>
                  <key>x</key>
                  <integer>969</integer>
                  <key>y</key>
                  <integer>1456</integer>
                </dict>
                <dict>
                  <key>segmentType</key>
                  <string>line</string>
                  <key>smooth</key>
                  <false/>
                  <key>x</key>
                  <integer>1306</integer>
                  <key>y</key>
                  <integer>1456</integer>
                </dict>
                <dict>
                  <key>segmentType</key>
                  <string>line</string>
                  <key>smooth</key>
                  <false/>
                  <key>x</key>
                  <integer>1306</integer>
                  <key>y</key>
                  <integer>1402</integer>
                </dict>
                <dict>
                  <key>segmentType</key>
                  <string>line</string>
                  <key>smooth</key>
                  <false/>
                  <key>x</key>
                  <integer>1191</integer>
                  <key>y</key>
                  <integer>1402</integer>
                </dict>
                <dict>
                  <key>segmentType</key>
                  <string>line</string>
                  <key>smooth</key>
                  <false/>
                  <key>x</key>
                  <integer>726</integer>
                  <key>y</key>
                  <integer>743</integer>
                </dict>
                <dict>
                  <key>segmentType</key>
                  <string>line</string>
                  <key>smooth</key>
                  <false/>
                  <key>x</key>
                  <integer>1212</integer>
                  <key>y</key>
                  <integer>54</integer>
                </dict>
                <dict>
                  <key>segmentType</key>
                  <string>line</string>
                  <key>smooth</key>
                  <false/>
                  <key>x</key>
                  <integer>1327</integer>
                  <key>y</key>
                  <integer>54</integer>
                </dict>
                <dict>
                  <key>segmentType</key>
                  <string>line</string>
                  <key>smooth</key>
                  <false/>
                  <key>x</key>
                  <integer>1327</integer>
                  <key>y</key>
                  <integer>0</integer>
                </dict>
                <dict>
                  <key>segmentType</key>
                  <string>line</string>
                  <key>smooth</key>
                  <false/>
                  <key>x</key>
                  <integer>990</integer>
                  <key>y</key>
                  <integer>0</integer>
                </dict>
                <dict>
                  <key>segmentType</key>
                  <string>line</string>
                  <key>smooth</key>
                  <false/>
                  <key>x</key>
                  <integer>990</integer>
                  <key>y</key>
                  <integer>54</integer>
                </dict>
                <dict>
                  <key>segmentType</key>
                  <string>line</string>
                  <key>smooth</key>
                  <false/>
                  <key>x</key>
                  <integer>1145</integer>
                  <key>y</key>
                  <integer>54</integer>
                </dict>
                <dict>
                  <key>segmentType</key>
                  <string>line</string>
                  <key>smooth</key>
                  <false/>
                  <key>x</key>
                  <integer>691</integer>
                  <key>y</key>
                  <integer>701</integer>
                </dict>
                <dict>
                  <key>segmentType</key>
                  <string>line</string>
                  <key>smooth</key>
                  <false/>
                  <key>x</key>
                  <integer>238</integer>
                  <key>y</key>
                  <integer>54</integer>
                </dict>
                <dict>
                  <key>segmentType</key>
                  <string>line</string>
                  <key>smooth</key>
                  <false/>
                  <key>x</key>
                  <integer>393</integer>
                  <key>y</key>
                  <integer>54</integer>
                </dict>
                <dict>
                  <key>segmentType</key>
                  <string>line</string>
                  <key>smooth</key>
                  <false/>
                  <key>x</key>
                  <integer>393</integer>
                  <key>y</key>
                  <integer>0</integer>
                </dict>
                <dict>
                  <key>segmentType</key>
                  <string>line</string>
                  <key>smooth</key>
                  <false/>
                  <key>x</key>
                  <integer>57</integer>
                  <key>y</key>
                  <integer>0</integer>
                </dict>
              </array>
            </dict>
          </array>
          <key>lib</key>
          <dict>
          </dict>
          <key>name</key>
          <string>X</string>
          <key>unicodes</key>
          <array>
          </array>
          <key>width</key>
          <integer>1384</integer>
        </dict>
      </dict>
      <key>com.typemytype.robofont.mark</key>
      <array>
        <real>1.0</real>
        <real>0.1703</real>
        <real>0.1669</real>
        <real>0.8287</real>
      </array>
    </dict>
  </lib>
</glyph>
