<?xml version="1.0" encoding="UTF-8"?>
<glyph name="C.ss04" format="1">
  <advance width="1274"/>
  <outline>
    <contour>
      <point x="1176" y="455" type="line"/>
      <point x="1178" y="449" type="line"/>
      <point x="1152.6666666666665" y="157.0000000000001"/>
      <point x="960.3333333333334" y="-21.0"/>
      <point x="655" y="-21" type="curve" smooth="yes"/>
      <point x="331.0" y="-21.0"/>
      <point x="114.0" y="237.0"/>
      <point x="114" y="609" type="curve" smooth="yes"/>
      <point x="114" y="846" type="line" smooth="yes"/>
      <point x="114.0" y="1216.6666666666665"/>
      <point x="331.0" y="1477.0"/>
      <point x="655" y="1477" type="curve" smooth="yes"/>
      <point x="963.0" y="1477.0"/>
      <point x="1152.6666666666665" y="1305.3333333333335"/>
      <point x="1178" y="1008" type="curve"/>
      <point x="1176" y="1002" type="line"/>
      <point x="1064" y="1002" type="line"/>
      <point x="1032.0" y="1243.3333333333335"/>
      <point x="900.3333333333333" y="1375.0"/>
      <point x="655" y="1375" type="curve" smooth="yes"/>
      <point x="400.33333333333326" y="1375.0"/>
      <point x="233.0" y="1157.3333333333333"/>
      <point x="233" y="848" type="curve" smooth="yes"/>
      <point x="233" y="609" type="line" smooth="yes"/>
      <point x="233.0" y="297.0"/>
      <point x="400.33333333333326" y="80.0"/>
      <point x="655" y="80" type="curve" smooth="yes"/>
      <point x="900.3333333333333" y="80.0"/>
      <point x="1033.3333333333335" y="205.66666666666674"/>
      <point x="1064" y="455" type="curve"/>
    </contour>
  </outline>
</glyph>
