<?xml version="1.0" encoding="UTF-8"?>
<glyph name="circumflextildecomb" format="1">
  <advance width="934"/>
  <outline>
    <contour>
      <point x="744" y="1258" type="line"/>
      <point x="742" y="1252" type="line"/>
      <point x="623" y="1252" type="line"/>
      <point x="422" y="1424" type="line"/>
      <point x="223" y="1252" type="line"/>
      <point x="105" y="1252" type="line"/>
      <point x="103" y="1258" type="line"/>
      <point x="375" y="1485" type="line"/>
      <point x="471" y="1485" type="line"/>
    </contour>
    <contour>
      <point x="683" y="1694" type="line"/>
      <point x="683.0" y="1610.0"/>
      <point x="618.0" y="1546.0"/>
      <point x="538" y="1546" type="curve" smooth="yes"/>
      <point x="466.0" y="1546.0"/>
      <point x="381.0" y="1634.0"/>
      <point x="329" y="1634" type="curve" smooth="yes"/>
      <point x="283.66666666666663" y="1634.0"/>
      <point x="249.0" y="1590.6666666666665"/>
      <point x="249" y="1540" type="curve"/>
      <point x="185" y="1553" type="line"/>
      <point x="185.0" y="1635.6666666666665"/>
      <point x="249.0" y="1712.0"/>
      <point x="329" y="1712" type="curve" smooth="yes"/>
      <point x="393.0" y="1712.0"/>
      <point x="486.0" y="1624.0"/>
      <point x="538" y="1624" type="curve" smooth="yes"/>
      <point x="583.3333333333333" y="1624.0"/>
      <point x="619.0" y="1658.3333333333335"/>
      <point x="619" y="1709" type="curve"/>
    </contour>
  </outline>
</glyph>
