<?xml version="1.0" encoding="UTF-8"?>
<glyph name="eng" format="1">
  <advance width="1242"/>
  <unicode hex="014B"/>
  <outline>
    <contour>
      <point x="90" y="88" type="line"/>
      <point x="253" y="101" type="line"/>
      <point x="253" y="980" type="line"/>
      <point x="90" y="993" type="line"/>
      <point x="90" y="1082" type="line"/>
      <point x="359" y="1082" type="line"/>
      <point x="369" y="897" type="line"/>
      <point x="439.666666667" y="1026.33333333"/>
      <point x="557.333333333" y="1102.0"/>
      <point x="716" y="1102" type="curve" smooth="yes"/>
      <point x="950.666666667" y="1102.0"/>
      <point x="1076.0" y="964.333333333"/>
      <point x="1076" y="659" type="curve" smooth="yes"/>
      <point x="1076" y="-89" type="line" smooth="yes"/>
      <point x="1076.0" y="-311.666666667"/>
      <point x="962.666666667" y="-437.0"/>
      <point x="772" y="-437" type="curve" smooth="yes"/>
      <point x="726.666666667" y="-437.0"/>
      <point x="691.666666667" y="-430.0"/>
      <point x="649" y="-418" type="curve"/>
      <point x="662" y="-315" type="line"/>
      <point x="683.333333333" y="-321.666666667"/>
      <point x="738.666666667" y="-330.0"/>
      <point x="772" y="-330" type="curve" smooth="yes"/>
      <point x="889.333333333" y="-330.0"/>
      <point x="956.0" y="-243.666666667"/>
      <point x="956" y="-89" type="curve" smooth="yes"/>
      <point x="956" y="658" type="line" smooth="yes"/>
      <point x="956.0" y="906.0"/>
      <point x="859.666666667" y="998.0"/>
      <point x="689" y="998" type="curve" smooth="yes"/>
      <point x="522.333333333" y="998.0"/>
      <point x="420.0" y="911.333333333"/>
      <point x="372" y="774" type="curve"/>
      <point x="372" y="101" type="line"/>
      <point x="535" y="88" type="line"/>
      <point x="535" y="0" type="line"/>
      <point x="90" y="0" type="line"/>
    </contour>
  </outline>
</glyph>
