<?xml version="1.0" encoding="UTF-8"?>
<glyph name="gbreve" format="1">
  <advance width="1148"/>
  <unicode hex="011F"/>
  <outline>
    <component base=".ttfautohint" xOffset="102"/>
    <component base="g"/>
    <component base="breve" xOffset="166" yOffset="55"/>
  </outline>
</glyph>
