<?xml version="1.0" encoding="UTF-8"?>
<glyph name="Idieresis.smcp" format="1">
  <advance width="610"/>
  <outline>
    <component base=".ttfautohint"/>
    <component base="I.smcp"/>
    <component base="dieresis" xOffset="-196" yOffset="19"/>
  </outline>
</glyph>
