<?xml version="1.0" encoding="UTF-8"?>
<glyph name="Iota" format="1">
  <advance width="627"/>
  <unicode hex="0399"/>
  <outline>
    <component base=".ttfautohint" xOffset="91"/>
    <component base="I"/>
  </outline>
</glyph>
