<?xml version="1.0" encoding="UTF-8"?>
<glyph name="Ocircumflexdotbelow" format="1">
  <advance width="1468"/>
  <unicode hex="1ED8"/>
  <outline>
    <component base=".ttfautohint" xOffset="106"/>
    <component base="O"/>
    <component base="circumflex" xOffset="350" yOffset="353"/>
    <component base="dotbelowcomb" xOffset="543" yOffset="-4"/>
  </outline>
</glyph>
