<?xml version="1.0" encoding="UTF-8"?>
<glyph name="Odieresis" format="1">
  <advance width="1468"/>
  <unicode hex="00D6"/>
  <outline>
    <component base=".ttfautohint" xOffset="106"/>
    <component base="O"/>
    <component base="dieresis" xOffset="249" yOffset="352"/>
  </outline>
</glyph>
