<?xml version="1.0" encoding="UTF-8"?>
<glyph name="uhorn" format="1">
  <advance width="1374"/>
  <unicode hex="01B0"/>
  <outline>
    <contour>
      <point x="1030" y="1082" type="line"/>
      <point x="1030" y="947" type="line"/>
      <point x="1036" y="945" type="line"/>
      <point x="1182.66666667" y="943.666666667"/>
      <point x="1216.0" y="1008.66666667"/>
      <point x="1216" y="1174" type="curve"/>
      <point x="1303" y="1174" type="line"/>
      <point x="1305" y="1169" type="line"/>
      <point x="1309.0" y="963.666666667"/>
      <point x="1236.66666667" y="864.333333333"/>
      <point x="1030" y="859" type="curve"/>
      <point x="1030" y="101" type="line"/>
      <point x="1175" y="88" type="line"/>
      <point x="1175" y="0" type="line"/>
      <point x="925" y="0" type="line"/>
      <point x="914" y="178" type="line"/>
      <point x="846.0" y="51.3333333333"/>
      <point x="726.0" y="-21.0"/>
      <point x="566" y="-21" type="curve" smooth="yes"/>
      <point x="338.0" y="-21.0"/>
      <point x="202.0" y="129.666666667"/>
      <point x="202" y="455" type="curve" smooth="yes"/>
      <point x="202" y="980" type="line"/>
      <point x="68" y="993" type="line"/>
      <point x="68" y="1082" type="line"/>
      <point x="321" y="1082" type="line"/>
      <point x="321" y="453" type="line" smooth="yes"/>
      <point x="321.0" y="189.0"/>
      <point x="414.666666667" y="83.0"/>
      <point x="580" y="83" type="curve" smooth="yes"/>
      <point x="761.333333333" y="83.0"/>
      <point x="866.0" y="167.666666667"/>
      <point x="910" y="309" type="curve"/>
      <point x="910" y="980" type="line"/>
      <point x="756" y="993" type="line"/>
      <point x="756" y="1082" type="line"/>
    </contour>
  </outline>
  <lib>
    <dict>
      <key>com.typemytype.robofont.layerData</key>
      <dict>
        <key>mask</key>
        <dict>
          <key>anchors</key>
          <array>
          </array>
          <key>components</key>
          <array>
          </array>
          <key>contours</key>
          <array>
            <dict>
              <key>points</key>
              <array>
                <dict>
                  <key>segmentType</key>
                  <string>line</string>
                  <key>smooth</key>
                  <false/>
                  <key>x</key>
                  <integer>1030</integer>
                  <key>y</key>
                  <integer>1082</integer>
                </dict>
                <dict>
                  <key>segmentType</key>
                  <string>line</string>
                  <key>smooth</key>
                  <false/>
                  <key>x</key>
                  <integer>1030</integer>
                  <key>y</key>
                  <integer>947</integer>
                </dict>
                <dict>
                  <key>segmentType</key>
                  <string>line</string>
                  <key>smooth</key>
                  <false/>
                  <key>x</key>
                  <integer>1036</integer>
                  <key>y</key>
                  <integer>945</integer>
                </dict>
                <dict>
                  <key>smooth</key>
                  <false/>
                  <key>x</key>
                  <real>1182.6666666666663</real>
                  <key>y</key>
                  <real>943.6666666666667</real>
                </dict>
                <dict>
                  <key>smooth</key>
                  <false/>
                  <key>x</key>
                  <real>1216.0</real>
                  <key>y</key>
                  <real>1008.6666666666663</real>
                </dict>
                <dict>
                  <key>segmentType</key>
                  <string>curve</string>
                  <key>smooth</key>
                  <false/>
                  <key>x</key>
                  <integer>1216</integer>
                  <key>y</key>
                  <integer>1174</integer>
                </dict>
                <dict>
                  <key>segmentType</key>
                  <string>line</string>
                  <key>smooth</key>
                  <false/>
                  <key>x</key>
                  <integer>1303</integer>
                  <key>y</key>
                  <integer>1174</integer>
                </dict>
                <dict>
                  <key>segmentType</key>
                  <string>line</string>
                  <key>smooth</key>
                  <false/>
                  <key>x</key>
                  <integer>1305</integer>
                  <key>y</key>
                  <integer>1169</integer>
                </dict>
                <dict>
                  <key>smooth</key>
                  <false/>
                  <key>x</key>
                  <real>1309.0</real>
                  <key>y</key>
                  <real>963.6666666666665</real>
                </dict>
                <dict>
                  <key>smooth</key>
                  <false/>
                  <key>x</key>
                  <real>1236.6666666666665</real>
                  <key>y</key>
                  <real>864.3333333333333</real>
                </dict>
                <dict>
                  <key>segmentType</key>
                  <string>curve</string>
                  <key>smooth</key>
                  <false/>
                  <key>x</key>
                  <integer>1030</integer>
                  <key>y</key>
                  <integer>859</integer>
                </dict>
                <dict>
                  <key>segmentType</key>
                  <string>line</string>
                  <key>smooth</key>
                  <false/>
                  <key>x</key>
                  <integer>1030</integer>
                  <key>y</key>
                  <integer>101</integer>
                </dict>
                <dict>
                  <key>segmentType</key>
                  <string>line</string>
                  <key>smooth</key>
                  <false/>
                  <key>x</key>
                  <integer>1175</integer>
                  <key>y</key>
                  <integer>88</integer>
                </dict>
                <dict>
                  <key>segmentType</key>
                  <string>line</string>
                  <key>smooth</key>
                  <false/>
                  <key>x</key>
                  <integer>1175</integer>
                  <key>y</key>
                  <integer>0</integer>
                </dict>
                <dict>
                  <key>segmentType</key>
                  <string>line</string>
                  <key>smooth</key>
                  <false/>
                  <key>x</key>
                  <integer>925</integer>
                  <key>y</key>
                  <integer>0</integer>
                </dict>
                <dict>
                  <key>segmentType</key>
                  <string>line</string>
                  <key>smooth</key>
                  <false/>
                  <key>x</key>
                  <integer>914</integer>
                  <key>y</key>
                  <integer>178</integer>
                </dict>
                <dict>
                  <key>smooth</key>
                  <false/>
                  <key>x</key>
                  <real>846.0</real>
                  <key>y</key>
                  <real>51.33333333333334</real>
                </dict>
                <dict>
                  <key>smooth</key>
                  <false/>
                  <key>x</key>
                  <real>726.0</real>
                  <key>y</key>
                  <real>-21.0</real>
                </dict>
                <dict>
                  <key>segmentType</key>
                  <string>curve</string>
                  <key>smooth</key>
                  <true/>
                  <key>x</key>
                  <integer>566</integer>
                  <key>y</key>
                  <integer>-21</integer>
                </dict>
                <dict>
                  <key>smooth</key>
                  <false/>
                  <key>x</key>
                  <real>338.00000000000006</real>
                  <key>y</key>
                  <real>-21.0</real>
                </dict>
                <dict>
                  <key>smooth</key>
                  <false/>
                  <key>x</key>
                  <real>202.0</real>
                  <key>y</key>
                  <real>129.66666666666669</real>
                </dict>
                <dict>
                  <key>segmentType</key>
                  <string>curve</string>
                  <key>smooth</key>
                  <true/>
                  <key>x</key>
                  <integer>202</integer>
                  <key>y</key>
                  <integer>455</integer>
                </dict>
                <dict>
                  <key>segmentType</key>
                  <string>line</string>
                  <key>smooth</key>
                  <false/>
                  <key>x</key>
                  <integer>202</integer>
                  <key>y</key>
                  <integer>980</integer>
                </dict>
                <dict>
                  <key>segmentType</key>
                  <string>line</string>
                  <key>smooth</key>
                  <false/>
                  <key>x</key>
                  <integer>68</integer>
                  <key>y</key>
                  <integer>993</integer>
                </dict>
                <dict>
                  <key>segmentType</key>
                  <string>line</string>
                  <key>smooth</key>
                  <false/>
                  <key>x</key>
                  <integer>68</integer>
                  <key>y</key>
                  <integer>1082</integer>
                </dict>
                <dict>
                  <key>segmentType</key>
                  <string>line</string>
                  <key>smooth</key>
                  <false/>
                  <key>x</key>
                  <integer>321</integer>
                  <key>y</key>
                  <integer>1082</integer>
                </dict>
                <dict>
                  <key>segmentType</key>
                  <string>line</string>
                  <key>smooth</key>
                  <true/>
                  <key>x</key>
                  <integer>321</integer>
                  <key>y</key>
                  <integer>453</integer>
                </dict>
                <dict>
                  <key>smooth</key>
                  <false/>
                  <key>x</key>
                  <real>321.0</real>
                  <key>y</key>
                  <real>189.0</real>
                </dict>
                <dict>
                  <key>smooth</key>
                  <false/>
                  <key>x</key>
                  <real>414.66666666666674</real>
                  <key>y</key>
                  <real>83.0</real>
                </dict>
                <dict>
                  <key>segmentType</key>
                  <string>curve</string>
                  <key>smooth</key>
                  <true/>
                  <key>x</key>
                  <integer>580</integer>
                  <key>y</key>
                  <integer>83</integer>
                </dict>
                <dict>
                  <key>smooth</key>
                  <false/>
                  <key>x</key>
                  <real>761.3333333333333</real>
                  <key>y</key>
                  <real>83.0</real>
                </dict>
                <dict>
                  <key>smooth</key>
                  <false/>
                  <key>x</key>
                  <real>866.0</real>
                  <key>y</key>
                  <real>167.66666666666669</real>
                </dict>
                <dict>
                  <key>segmentType</key>
                  <string>curve</string>
                  <key>smooth</key>
                  <false/>
                  <key>x</key>
                  <integer>910</integer>
                  <key>y</key>
                  <integer>309</integer>
                </dict>
                <dict>
                  <key>segmentType</key>
                  <string>line</string>
                  <key>smooth</key>
                  <false/>
                  <key>x</key>
                  <integer>910</integer>
                  <key>y</key>
                  <integer>980</integer>
                </dict>
                <dict>
                  <key>segmentType</key>
                  <string>line</string>
                  <key>smooth</key>
                  <false/>
                  <key>x</key>
                  <integer>756</integer>
                  <key>y</key>
                  <integer>993</integer>
                </dict>
                <dict>
                  <key>segmentType</key>
                  <string>line</string>
                  <key>smooth</key>
                  <false/>
                  <key>x</key>
                  <integer>756</integer>
                  <key>y</key>
                  <integer>1082</integer>
                </dict>
              </array>
            </dict>
          </array>
          <key>lib</key>
          <dict>
          </dict>
          <key>name</key>
          <string>uhorn</string>
          <key>unicodes</key>
          <array>
          </array>
          <key>width</key>
          <integer>1374</integer>
        </dict>
      </dict>
    </dict>
  </lib>
</glyph>
