<?xml version="1.0" encoding="UTF-8"?>
<glyph name="Zedescender-cy" format="1">
  <advance width="1216"/>
  <unicode hex="0498"/>
  <outline>
    <component base=".ttfautohint" xOffset="71"/>
    <component base="Ze-cy"/>
    <component base="cyrillictic" xOffset="393" yOffset="-4"/>
  </outline>
</glyph>
