<?xml version="1.0" encoding="UTF-8"?>
<glyph name="Aacute" format="1">
  <advance width="1500"/>
  <unicode hex="00C1"/>
  <outline>
    <component base=".ttfautohint" xOffset="55"/>
    <component base="A"/>
    <component base="acute" xOffset="536" yOffset="344"/>
  </outline>
</glyph>
