<?xml version="1.0" encoding="UTF-8"?>
<glyph name="Abrevehookabove" format="1">
  <advance width="1500"/>
  <unicode hex="1EB2"/>
  <outline>
    <component base=".ttfautohint" xOffset="55"/>
    <component base="A"/>
    <component base="brevehookcomb" xOffset="324" yOffset="328"/>
  </outline>
</glyph>
