<?xml version="1.0" encoding="UTF-8"?>
<glyph name="Aringacute" format="1">
  <advance width="1500"/>
  <unicode hex="01FA"/>
  <outline>
    <component base=".ttfautohint" xOffset="55"/>
    <component base="A"/>
    <component base="ringacute" xOffset="433" yOffset="304"/>
  </outline>
</glyph>
