<?xml version="1.0" encoding="UTF-8"?>
<glyph name="Ecircumflex" format="1">
  <advance width="1306"/>
  <unicode hex="00CA"/>
  <outline>
    <component base=".ttfautohint" xOffset="71"/>
    <component base="E"/>
    <component base="circumflex" xOffset="242" yOffset="336"/>
  </outline>
</glyph>
