<?xml version="1.0" encoding="UTF-8"?>
<glyph name="ecircumflex" format="1">
  <advance width="1101"/>
  <unicode hex="00EA"/>
  <outline>
    <component base=".ttfautohint" xOffset="90"/>
    <component base="e"/>
    <component base="circumflex" xOffset="146" yOffset="11"/>
  </outline>
</glyph>
