<?xml version="1.0" encoding="UTF-8"?>
<glyph name="etilde" format="1">
  <advance width="1101"/>
  <unicode hex="1EBD"/>
  <outline>
    <component base=".ttfautohint" xOffset="90"/>
    <component base="e"/>
    <component base="tilde" xOffset="73" yOffset="28"/>
  </outline>
</glyph>
