<?xml version="1.0" encoding="UTF-8"?>
<glyph name="I" format="1">
  <advance width="763"/>
  <unicode hex="0049"/>
  <outline>
    <contour>
      <point x="120" y="1329" type="line"/>
      <point x="120" y="1456" type="line"/>
      <point x="643" y="1456" type="line"/>
      <point x="643" y="1329" type="line"/>
      <point x="480" y="1301" type="line"/>
      <point x="480" y="154" type="line"/>
      <point x="643" y="126" type="line"/>
      <point x="643" y="0" type="line"/>
      <point x="120" y="0" type="line"/>
      <point x="120" y="126" type="line"/>
      <point x="283" y="154" type="line"/>
      <point x="283" y="1301" type="line"/>
    </contour>
  </outline>
  <lib>
    <dict>
      <key>com.typemytype.robofont.mark</key>
      <array>
        <real>1.0</real>
        <real>0.1703</real>
        <real>0.1669</real>
        <real>0.8287</real>
      </array>
    </dict>
  </lib>
</glyph>
