<?xml version="1.0" encoding="UTF-8"?>
<glyph name="seven" format="1">
  <advance width="1128"/>
  <unicode hex="0037"/>
  <outline>
    <contour>
      <point x="1060" y="1301" type="line"/>
      <point x="708.0" y="882.3333333333335"/>
      <point x="624.6666666666667" y="617.0"/>
      <point x="570" y="157" type="curve" smooth="yes"/>
      <point x="554" y="0" type="line"/>
      <point x="357" y="0" type="line"/>
      <point x="373" y="157" type="line" smooth="yes"/>
      <point x="429.0" y="615.6666666666666"/>
      <point x="587.0" y="957.0"/>
      <point x="867" y="1301" type="curve"/>
      <point x="259" y="1301" type="line"/>
      <point x="244" y="1134" type="line"/>
      <point x="76" y="1134" type="line"/>
      <point x="76" y="1456" type="line"/>
      <point x="1060" y="1456" type="line"/>
    </contour>
  </outline>
</glyph>
