<?xml version="1.0" encoding="UTF-8"?>
<glyph name="umacron-cy" format="1">
  <advance width="1162"/>
  <unicode hex="04EF"/>
  <outline>
    <component base=".ttfautohint" xOffset="35"/>
    <component base="y"/>
    <component base="firsttonechinese" xOffset="60" yOffset="14"/>
  </outline>
</glyph>
