<?xml version="1.0" encoding="UTF-8"?>
<glyph name="Acircumflexacute" format="1">
  <advance width="1471"/>
  <unicode hex="1EA4"/>
  <outline>
    <component base=".ttfautohint" xOffset="41"/>
    <component base="A"/>
    <component base="circumflexacutecomb" xOffset="283" yOffset="294"/>
  </outline>
</glyph>
