<?xml version="1.0" encoding="UTF-8"?>
<glyph name="breve" format="1">
  <advance width="873"/>
  <unicode hex="02D8"/>
  <outline>
    <contour>
      <point x="785" y="1456" type="line"/>
      <point x="787" y="1450" type="line"/>
      <point x="793.6666666666667" y="1280.6666666666665"/>
      <point x="657.6666666666667" y="1162.0"/>
      <point x="447" y="1162" type="curve" smooth="yes"/>
      <point x="235.00000000000006" y="1162.0"/>
      <point x="98.0" y="1280.6666666666665"/>
      <point x="106" y="1450" type="curve"/>
      <point x="108" y="1456" type="line"/>
      <point x="306" y="1456" type="line"/>
      <point x="306.0" y="1378.6666666666665"/>
      <point x="349.66666666666663" y="1322.0"/>
      <point x="447" y="1322" type="curve" smooth="yes"/>
      <point x="541.6666666666666" y="1322.0"/>
      <point x="586.0" y="1377.3333333333335"/>
      <point x="586" y="1456" type="curve"/>
    </contour>
  </outline>
</glyph>
