<?xml version="1.0" encoding="UTF-8"?>
<glyph name="fiveeighths" format="1">
  <advance width="1835"/>
  <unicode hex="215D"/>
  <outline>
    <component base=".ttfautohint" xOffset="100"/>
    <component base="five.sup" xOffset="8" yOffset="654"/>
    <component base="fraction" xOffset="515"/>
    <component base="eight.sup" xOffset="1055"/>
  </outline>
</glyph>
