<?xml version="1.0" encoding="UTF-8"?>
<glyph name="Ncommaaccent" format="1">
  <advance width="1582"/>
  <unicode hex="0145"/>
  <outline>
    <component base=".ttfautohint" xOffset="56"/>
    <component base="N"/>
    <component base="commaaccent" xOffset="516" yOffset="-357"/>
  </outline>
</glyph>
