<?xml version="1.0" encoding="UTF-8"?>
<glyph name="six.lnum" format="1">
  <advance width="1163"/>
  <outline>
    <contour>
      <point x="689" y="1477" type="curve" smooth="yes"/>
      <point x="798.3333333333333" y="1477.0"/>
      <point x="886.6666666666667" y="1456.0"/>
      <point x="980" y="1416" type="curve"/>
      <point x="928" y="1202" type="line"/>
      <point x="841.3333333333333" y="1231.3333333333335"/>
      <point x="781.6666666666667" y="1248.0"/>
      <point x="691" y="1248" type="curve" smooth="yes"/>
      <point x="513.6666666666666" y="1248.0"/>
      <point x="395.0" y="1107.6666666666665"/>
      <point x="403" y="873" type="curve"/>
      <point x="406" y="868" type="line"/>
      <point x="471.33333333333337" y="936.0"/>
      <point x="573.6666666666667" y="977.0"/>
      <point x="699" y="977" type="curve" smooth="yes"/>
      <point x="959.0" y="977.0"/>
      <point x="1116.0" y="771.6666666666665"/>
      <point x="1116" y="485" type="curve" smooth="yes"/>
      <point x="1116.0" y="191.66666666666663"/>
      <point x="914.3333333333331" y="-21.0"/>
      <point x="625" y="-21" type="curve" smooth="yes"/>
      <point x="318.33333333333337" y="-21.0"/>
      <point x="105.0" y="199.66666666666674"/>
      <point x="105" y="569" type="curve" smooth="yes"/>
      <point x="105" y="853" type="line" smooth="yes"/>
      <point x="105.0" y="1234.3333333333335"/>
      <point x="350.3333333333335" y="1477.0"/>
    </contour>
    <contour>
      <point x="622" y="756" type="curve" smooth="yes"/>
      <point x="514.0" y="756.0"/>
      <point x="437.33333333333337" y="719.0"/>
      <point x="396" y="659" type="curve"/>
      <point x="396" y="562" type="line" smooth="yes"/>
      <point x="396.0" y="331.33333333333337"/>
      <point x="486.33333333333326" y="203.0"/>
      <point x="625" y="203" type="curve" smooth="yes"/>
      <point x="745.0" y="203.0"/>
      <point x="824.0" y="329.0"/>
      <point x="824" y="485" type="curve" smooth="yes"/>
      <point x="824.0" y="646.3333333333333"/>
      <point x="744.6666666666667" y="756.0"/>
    </contour>
  </outline>
</glyph>
