<?xml version="1.0" encoding="UTF-8"?>
<glyph name="Tcommaaccent" format="1">
  <advance width="1377"/>
  <unicode hex="021A"/>
  <outline>
    <component base=".ttfautohint" xOffset="40"/>
    <component base="T"/>
    <component base="commaaccent" xOffset="423" yOffset="-361"/>
  </outline>
</glyph>
