<?xml version="1.0" encoding="UTF-8"?>
<glyph name="u-cy" format="1">
  <advance width="1212"/>
  <unicode hex="0443"/>
  <outline>
    <component base=".ttfautohint" xOffset="26"/>
    <component base="y"/>
  </outline>
</glyph>
